<svg xmlns="http://www.w3.org/2000/svg" xmlns:xlink="http://www.w3.org/1999/xlink" id="Layer_1" x="0px" y="0px" viewBox="0 0 800 800" xml:space="preserve">
<style type="text/css">
	.st0{fill:#FFFFFF;}
</style>
<g>
	<g>
		<path class="st0" d="M400,468.1c-32.6,0-59-26.5-59-59s26.5-59,59-59c32.6,0,59,26.5,59,59S432.6,468.1,400,468.1z M400,361.5    c-26.2,0-47.5,21.3-47.5,47.5s21.3,47.5,47.5,47.5s47.5-21.3,47.5-47.5S426.2,361.5,400,361.5z"></path>
		<path class="st0" d="M360.2,618.8c-3.1,0-5.7-2.5-5.8-5.6c0-0.7-2.7-74.4-13.3-108.8c-3.3-10.7-6.9-21.1-10.3-31.2    c-7.9-23-16-46.8-21.6-75.1c-5.5-28.1,14.5-47.7,37.7-70.4c13-12.7,27.6-27,39.6-44.7l6.9-54.6c0.4-3.2,3.3-5.4,6.4-5    c3.2,0.4,5.4,3.3,5,6.4l-7.3,57.3l-0.8,1.1c-12.8,19.1-28.3,34.3-41.9,47.6c-21.7,21.2-38.8,38-34.5,59.9    c5.4,27.5,13.1,49.9,21.2,73.6c3.5,10.1,7,20.6,10.4,31.5c11.1,35.8,13.7,108.7,13.8,111.8c0.1,3.2-2.4,5.9-5.6,6    C360.3,618.8,360.2,618.8,360.2,618.8z"></path>
		<path class="st0" d="M439.8,618.8c-0.1,0-0.1,0-0.2,0c-3.2-0.1-5.7-2.8-5.6-6c0.1-3.1,2.7-76,13.8-111.8    c3.4-10.9,7-21.4,10.4-31.5c8.1-23.7,15.7-46.1,21.2-73.6c4.3-22-12.8-38.7-34.5-59.9c-13.6-13.3-29.1-28.5-41.9-47.6l-0.8-1.1    l-7.3-57.3c-0.4-3.2,1.8-6,5-6.4s6,1.8,6.4,5l6.9,54.6c12,17.6,26.7,32,39.6,44.7c23.2,22.7,43.3,42.3,37.7,70.4    c-5.6,28.3-13.7,52.1-21.6,75.1c-3.4,10.1-7,20.5-10.3,31.2c-10.7,34.4-13.3,108.1-13.3,108.8    C445.5,616.4,442.9,618.8,439.8,618.8z"></path>
		<path class="st0" d="M260.4,735.5c-22.1,0-30.8-8-34.2-14.8c-4.4-8.8-1.8-18.9,2.4-24.6c10.7-14,44.4-18.4,78-21.6    c6.1-0.6,13-1.2,14.5-1.7c0.9-0.3,2-0.7,3.3-1.1c8.9-2.8,25.6-8.1,28.1-22c2.3-12.5,2.1-36.3,2.1-36.6c0-3.2,2.5-5.8,5.7-5.8l0,0    c3.2,0,5.7,2.6,5.8,5.7c0,1,0.2,25.2-2.3,38.7c-3.8,20.7-25.5,27.6-36,31c-1.2,0.4-2.2,0.7-2.9,1c-2.5,0.9-7.1,1.4-17.3,2.3    c-11.5,1.1-27.3,2.6-41.4,5.4c-20.3,4.1-26.6,9-28.6,11.6c-1.9,2.5-3.6,8-1.3,12.4c2.8,5.6,11.7,8.7,24.9,8.5    c19.7-0.2,47.7-4.7,74.8-9.1c46.6-7.5,75.7-11.5,87.7-5.4c2.8,1.5,4,4.9,2.5,7.8c-1.5,2.8-4.9,4-7.8,2.5c-2.7-1.4-10-2.7-29.1-0.8    c-14.8,1.4-32.6,4.3-51.5,7.3c-27.5,4.4-56,9-76.5,9.2C261.2,735.5,260.8,735.5,260.4,735.5z"></path>
		<path class="st0" d="M538.9,733.7c-23.5,0-57.2-8.9-89.8-17.5c-17.4-4.6-33.8-8.9-47.1-11.4c-17.6-3.3-23.2-2.2-25.1-1.2    c-2.8,1.5-6.3,0.5-7.8-2.3s-0.5-6.3,2.3-7.8c11.4-6.2,38.1,0.3,80.6,11.5c30.9,8.2,66,17.4,88,17.1c13.2-0.2,22-3.4,24.7-9.2    c2.1-4.5,0.3-9.9-1.7-12.4s-8.5-7.3-28.9-10.8c-14.1-2.5-29.9-3.5-41.5-4.3c-10.2-0.7-14.8-1-17.3-1.9c-0.8-0.2-1.8-0.5-3-0.9    c-10.5-3-32.5-9.4-36.8-30c-3.2-15.4-1.2-43.1-1.1-44.2c0.2-3.2,3-5.6,6.2-5.3c3.2,0.2,5.6,3,5.3,6.2c0,0.3-2,27.2,0.9,41    s19.7,18.7,28.7,21.3c1.3,0.4,2.4,0.7,3.4,1c1.5,0.4,8.4,0.9,14.5,1.3c33.7,2.3,67.6,5.7,78.6,19.5c4.4,5.5,7.3,15.6,3.1,24.5    c-3.3,7-12.1,15.5-35,15.8C539.7,733.7,539.3,733.7,538.9,733.7z"></path>
	</g>
	<path class="st0" d="M333.3,542.2c-0.6,0-1.3-0.1-1.9-0.3c-11.8-4.4-23.2-9.9-34-16.5c-28.3-17.3-51.9-41.6-68.4-70.4   c-17-29.6-26-63.5-26-97.8c0-52.6,20.5-102.1,57.7-139.3s86.7-57.7,139.3-57.7s102.1,20.5,139.3,57.7   C576.5,255,597,304.5,597,357.1c0,37-10.3,73.1-29.8,104.3c-19,30.4-45.8,55-77.7,71.3c-6.7,3.4-13.7,6.5-20.8,9.1   c-2.9,1.1-6-0.4-7.1-3.3c-1.1-2.9,0.4-6,3.3-7.1c6.7-2.5,13.3-5.4,19.6-8.6c62.6-32,101.5-95.5,101.5-165.7   c0-102.5-83.4-186-186-186c-102.5,0-186,83.4-186,186c0,65.3,33.3,124.7,89.1,158.8c10.2,6.2,20.9,11.5,32.1,15.6   c2.9,1.1,4.3,4.2,3.3,7.1C337.7,540.8,335.6,542.2,333.3,542.2z"></path>
	<path class="st0" d="M473.9,507.6c-2,0-3.9-1.1-4.9-3c-1.4-2.7-0.3-6,2.4-7.4c52.9-27,85.8-80.7,85.8-140   c0-86.6-70.5-157.1-157.1-157.1S243,270.6,243,357.2c0,55.2,28.2,105.4,75.3,134.2c2.6,1.6,3.4,5,1.8,7.6s-5,3.4-7.6,1.8   c-50.5-30.9-80.6-84.5-80.6-143.6c0-92.7,75.4-168.2,168.2-168.2c92.7,0,168.2,75.4,168.2,168.2c0,63.5-35.2,121-91.8,149.9   C475.6,507.4,474.7,507.6,473.9,507.6z"></path>
	<path class="st0" d="M404.5,150.9c-1.6,0-3.2-0.7-4.3-1.9c-0.7-0.8-2.7-3.6-0.3-7.5c0.3-0.5,0.7-1.1,1.2-1.8   c2.1-3.1,6.6-9.4,7-16.2c0.2-3.8-2.7-8.2-5.7-13c-3.9-6-8.3-12.7-7.8-20.7c0.8-14.2,9.9-23.2,10.3-23.5c2.3-2.2,5.9-2.2,8.2,0.1   c2.2,2.3,2.2,5.9-0.1,8.1c-0.2,0.2-6.3,6.5-6.8,16c-0.2,4.2,2.8,8.9,6,13.8c3.8,5.8,8,12.3,7.6,19.9c-0.6,10.1-6.3,18.3-9.1,22.2   c-0.2,0.3-0.4,0.6-0.6,0.8c-0.3,0.9-0.9,1.7-1.6,2.4C407.2,150.4,405.8,150.9,404.5,150.9z"></path>
	<path class="st0" d="M298.5,176.9c-0.6,0-1.2-0.1-1.8-0.3c-1-0.3-4.2-1.8-4.1-6.3c0-0.6,0.1-1.3,0.2-2.2c0.3-3.7,1-11.5-2.1-17.6   c-1.7-3.4-6.4-5.8-11.5-8.4c-6.3-3.2-13.5-6.9-17.1-14c-6.4-12.7-3-25-2.9-25.5c0.9-3.1,4-4.8,7.1-4c3.1,0.9,4.8,4,4,7.1   c-0.1,0.2-2.2,8.7,2.1,17.2c1.9,3.8,6.8,6.3,12.1,9c6.1,3.1,13.1,6.7,16.5,13.4c4.6,9,3.7,19,3.3,23.8c0,0.3-0.1,0.7-0.1,1   c0.2,0.9,0.1,1.9-0.2,2.9C303.2,175.3,300.9,176.9,298.5,176.9z"></path>
	<path class="st0" d="M219.8,252.3c-1.5,0-3.9-0.6-5.5-3.6c-0.3-0.5-0.6-1.2-1-2c-1.6-3.4-4.9-10.4-10.6-14.2   c-3.2-2.1-8.5-1.8-14.1-1.5c-7.1,0.4-15.2,0.8-21.9-3.6c-11.9-7.8-15.1-20.1-15.2-20.7c-0.8-3.1,1.1-6.2,4.2-7   c3.1-0.8,6.2,1.1,7,4.1c0.1,0.2,2.5,8.7,10.4,13.9c3.5,2.3,9.1,2,14.9,1.7c6.9-0.4,14.7-0.8,21,3.4c8.5,5.5,12.7,14.6,14.7,18.9   c0.1,0.3,0.3,0.6,0.4,0.9c0.6,0.7,1.1,1.6,1.3,2.6c0.6,3.1-1.4,6.2-4.5,6.8C220.7,252.3,220.3,252.3,219.8,252.3z"></path>
	<path class="st0" d="M135,361.4c-0.4,0-0.8,0-1.1,0c-14.2-0.8-23.2-9.9-23.5-10.3c-2.2-2.3-2.2-5.9,0.1-8.2   c2.3-2.2,5.9-2.2,8.1,0.1c0.2,0.2,6.5,6.3,16,6.8c4.2,0.2,8.9-2.8,13.8-6c5.8-3.8,12.3-8,19.9-7.6c10.1,0.6,18.3,6.3,22.2,9.1   c0.3,0.2,0.6,0.4,0.8,0.6c0.9,0.3,1.7,0.9,2.4,1.6c2.1,2.4,1.9,6-0.5,8.1c-0.8,0.7-3.6,2.7-7.5,0.3c-0.5-0.3-1.1-0.7-1.8-1.2   c-3.1-2.1-9.4-6.6-16.2-7c-3.8-0.2-8.2,2.7-13,5.7C148.9,357.2,142.5,361.4,135,361.4z"></path>
	<path class="st0" d="M155.5,497.5c-5,0-8.4-0.9-8.7-1c-3.1-0.9-4.9-4-4-7.1s4-4.8,7.1-4c0.2,0.1,8.7,2.2,17.2-2.1   c3.8-1.9,6.3-6.8,9-12.1c3.1-6.1,6.7-13.1,13.4-16.5c9-4.6,19-3.7,23.8-3.3c0.3,0,0.7,0.1,1,0.1c0.9-0.2,1.9-0.1,2.9,0.2   c3,1,4.6,4.3,3.6,7.3c-0.3,1-1.8,4.2-6.3,4.1c-0.6,0-1.3-0.1-2.2-0.2c-3.7-0.3-11.5-1-17.6,2.1c-3.4,1.7-5.8,6.4-8.4,11.5   c-3.2,6.3-6.9,13.5-14,17.1C166.2,496.7,160.2,497.5,155.5,497.5z"></path>
	<path class="st0" d="M249.7,604.4c-2.6,0-4.9-1.7-5.6-4.3c-0.8-3.1,1.1-6.2,4.1-7c0.2-0.1,8.7-2.5,13.9-10.4   c2.3-3.5,2-9.1,1.7-14.9c-0.4-6.9-0.8-14.7,3.4-21c5.5-8.5,14.6-12.7,18.9-14.7c0.3-0.1,0.6-0.3,0.9-0.4c0.7-0.6,1.6-1.1,2.6-1.3   c3.1-0.6,6.2,1.4,6.8,4.5c0.2,1,0.6,4.5-3.5,6.7c-0.5,0.3-1.2,0.6-2,1c-3.4,1.6-10.4,4.9-14.2,10.6c-2.1,3.2-1.8,8.5-1.5,14.1   c0.4,7.1,0.8,15.2-3.6,21.9c-7.8,11.9-20.1,15.1-20.6,15.3C250.6,604.4,250.2,604.4,249.7,604.4z"></path>
	<path class="st0" d="M535.2,613.1c-0.5,0-1-0.1-1.6-0.2c-3.1-0.9-4.8-4-4-7.1c0.1-0.2,2.2-8.7-2.1-17.2c-1.9-3.8-6.8-6.3-12.1-9   c-6.1-3.1-13.1-6.7-16.5-13.4c-4.6-9-3.7-19-3.3-23.8c0-0.3,0.1-0.7,0.1-1c-0.2-0.9-0.1-1.9,0.2-2.9c1-3,4.3-4.6,7.3-3.6   c1,0.3,4.2,1.8,4.1,6.3c0,0.6-0.1,1.3-0.2,2.2c-0.3,3.7-1,11.5,2.1,17.6c1.7,3.4,6.4,5.8,11.5,8.4c6.3,3.2,13.5,6.9,17.1,14   c6.4,12.7,3,25,2.9,25.5C540.1,611.5,537.7,613.1,535.2,613.1z"></path>
	<path class="st0" d="M642.9,511.8c-2.6,0-4.9-1.7-5.6-4.3c-0.1-0.2-2.5-8.7-10.4-13.9c-3.5-2.3-9.1-2-14.9-1.7   c-6.9,0.4-14.7,0.8-21-3.4c-8.5-5.5-12.7-14.6-14.7-18.9c-0.1-0.3-0.3-0.6-0.4-0.9c-0.6-0.7-1.1-1.6-1.3-2.6   c-0.6-3.1,1.4-6.2,4.5-6.8c1-0.2,4.5-0.6,6.7,3.5c0.3,0.5,0.6,1.2,1,2c1.6,3.4,4.9,10.4,10.6,14.2c3.2,2.1,8.5,1.8,14.1,1.5   c7.1-0.4,15.2-0.8,21.9,3.6c11.9,7.8,15.1,20.1,15.3,20.6c0.8,3.1-1.1,6.2-4.2,7C643.9,511.8,643.4,511.8,642.9,511.8z"></path>
	<path class="st0" d="M632.8,375.3c-0.4,0-0.7,0-1.1,0c-10.1-0.6-18.3-6.3-22.2-9c-0.3-0.2-0.6-0.4-0.8-0.6   c-0.9-0.3-1.7-0.9-2.4-1.6c-2.1-2.4-1.9-6,0.5-8.1c0.8-0.7,3.6-2.7,7.5-0.3c0.5,0.3,1.1,0.7,1.8,1.2c3.1,2.1,9.4,6.6,16.2,7   c3.8,0.2,8.2-2.7,13-5.7c6-3.9,12.7-8.3,20.7-7.8c14.2,0.8,23.2,9.9,23.5,10.3c2.2,2.3,2.2,5.9-0.1,8.2c-2.3,2.2-5.9,2.2-8.1-0.1   c-0.2-0.2-6.5-6.3-16-6.8c-4.2-0.3-8.9,2.8-13.8,6C646.2,371.3,640,375.3,632.8,375.3z"></path>
	<path class="st0" d="M593.5,260.4c-2.7,0-5.1-0.2-6.8-0.4c-0.3,0-0.7-0.1-1-0.1c-0.9,0.2-1.9,0.1-2.9-0.2c-3-1-4.7-4.3-3.6-7.3   c0.3-1,1.8-4.2,6.3-4.1c0.6,0,1.3,0.1,2.2,0.2c3.7,0.3,11.5,1,17.6-2.1c3.4-1.7,5.8-6.4,8.4-11.5c3.2-6.3,6.9-13.5,14-17.1   c12.7-6.4,25-3,25.5-2.9c3.1,0.9,4.9,4,4,7.1s-4,4.8-7.1,4c-0.2-0.1-8.7-2.2-17.2,2.1c-3.8,1.9-6.3,6.8-9,12.1   c-3.1,6.1-6.7,13.1-13.4,16.5C604.6,259.7,598.4,260.4,593.5,260.4z"></path>
	<path class="st0" d="M509.2,181.3c-2.7,0-5.1-1.9-5.6-4.6c-0.2-1-0.6-4.5,3.5-6.7c0.5-0.3,1.2-0.6,2-1c3.4-1.6,10.4-4.9,14.2-10.6   c2.1-3.2,1.8-8.5,1.5-14.1c-0.4-7.1-0.8-15.2,3.6-21.9c7.8-11.9,20.1-15.1,20.6-15.3c3.1-0.8,6.2,1.1,7,4.2s-1.1,6.2-4.1,7   c-0.2,0.1-8.7,2.5-13.9,10.4c-2.3,3.5-2,9.1-1.7,14.9c0.4,6.9,0.8,14.7-3.4,21c-5.5,8.5-14.6,12.7-18.9,14.7   c-0.3,0.1-0.6,0.3-0.9,0.4c-0.7,0.6-1.6,1.1-2.6,1.3C510,181.3,509.6,181.3,509.2,181.3z"></path>
	<path class="st0" d="M349.8,156.9c-1.1,0-2.2-0.3-3.2-1c-0.9-0.6-3.6-2.8-2.3-7.2c0.2-0.6,0.4-1.2,0.7-2.1   c1.3-3.5,3.9-10.8,2.5-17.5c-0.8-3.7-4.7-7.3-8.9-11c-5.3-4.8-11.3-10.2-12.9-18c-0.6-3.1,1.4-6.2,4.5-6.8c3.1-0.6,6.2,1.4,6.8,4.5   c0.9,4.1,5,7.9,9.3,11.8c5.1,4.6,10.9,9.8,12.5,17.3c2.1,9.9-1.4,19.3-3,23.8c-0.1,0.3-0.2,0.7-0.3,0.9c-0.1,0.9-0.4,1.9-0.9,2.7   C353.5,156,351.6,156.9,349.8,156.9z"></path>
	<path class="st0" d="M254.2,209.4c-0.1,0-0.2,0-0.4,0c-1-0.1-4.5-0.6-5.6-5.1c-0.1-0.6-0.3-1.3-0.4-2.1c-0.6-3.7-2-11.3-6.5-16.4   c-2.5-2.8-7.7-3.9-13.2-5.1c-7-1.5-14.9-3.1-20.2-9.1c-2.1-2.4-1.9-6,0.5-8.1s6-1.9,8.1,0.5c2.8,3.2,8.2,4.3,14,5.5   c6.7,1.4,14.4,3,19.4,8.7c6.7,7.5,8.5,17.4,9.3,22.1c0.1,0.3,0.1,0.7,0.2,1c0.4,0.9,0.6,1.8,0.5,2.8   C259.7,207.1,257.2,209.4,254.2,209.4z"></path>
	<path class="st0" d="M197.6,302.7c-1.4,0-3.1-0.5-4.7-2.2c-0.4-0.4-0.9-1-1.4-1.6c-2.4-2.9-7.4-8.8-13.9-10.9   c-3.6-1.2-8.7,0.5-14,2.2c-6.8,2.2-14.4,4.7-22.1,2.2c-3-1-4.7-4.3-3.7-7.3s4.3-4.7,7.3-3.7c4,1.3,9.3-0.4,14.9-2.2   c6.6-2.1,14-4.6,21.2-2.2c9.6,3.2,16,10.8,19.1,14.5c0.2,0.3,0.5,0.5,0.6,0.8c0.8,0.5,1.4,1.3,1.9,2.2c1.4,2.9,0.3,6.3-2.6,7.7   C199.8,302.3,198.8,302.7,197.6,302.7z"></path>
	<path class="st0" d="M143.2,430.1c-2.7,0-5.1-1.9-5.6-4.6c-0.6-3.1,1.4-6.2,4.5-6.8c4.1-0.9,7.9-5,11.8-9.3   c4.6-5.1,9.8-10.9,17.3-12.5c9.9-2.1,19.3,1.4,23.8,3c0.3,0.1,0.7,0.2,0.9,0.3c0.9,0.1,1.9,0.4,2.7,0.9c2.7,1.8,3.4,5.3,1.6,8   c-0.6,0.9-2.8,3.6-7.2,2.3c-0.6-0.2-1.2-0.4-2.1-0.7c-3.5-1.3-10.8-3.9-17.5-2.5c-3.7,0.8-7.3,4.7-11,8.9   c-4.8,5.3-10.2,11.3-18,12.9C144,430.1,143.6,430.1,143.2,430.1z"></path>
	<path class="st0" d="M211.9,549.3c-1.6,0-3.2-0.7-4.3-1.9c-2.1-2.4-1.9-6,0.5-8.1c3.2-2.8,4.3-8.2,5.5-14c1.4-6.7,3-14.4,8.7-19.4   c7.5-6.7,17.4-8.5,22.1-9.3c0.3-0.1,0.7-0.1,1-0.2c0.9-0.4,1.8-0.6,2.8-0.5c3.2,0.2,5.6,2.9,5.4,6.1c-0.1,1-0.6,4.5-5.1,5.6   c-0.6,0.1-1.3,0.3-2.1,0.4c-3.7,0.6-11.3,2-16.4,6.5c-2.8,2.5-3.9,7.7-5.1,13.2c-1.5,7-3.1,14.9-9.1,20.2   C214.7,548.9,213.3,549.3,211.9,549.3z"></path>
	<path class="st0" d="M587.8,549.6c-1.6,0-3.2-0.7-4.3-1.9c-2.8-3.2-8.2-4.3-14-5.5c-6.7-1.4-14.4-3-19.4-8.7   c-6.7-7.5-8.5-17.4-9.3-22.1c-0.1-0.3-0.1-0.7-0.2-1c-0.4-0.9-0.6-1.8-0.5-2.8c0.2-3.2,2.9-5.6,6.1-5.4c1,0.1,4.5,0.6,5.6,5.1   c0.1,0.6,0.3,1.3,0.4,2.1c0.6,3.7,2,11.3,6.5,16.4c2.5,2.8,7.7,3.9,13.2,5.1c7,1.5,14.9,3.1,20.2,9.1c2.1,2.4,1.9,6-0.5,8.1   C590.6,549.1,589.2,549.6,587.8,549.6z"></path>
	<path class="st0" d="M625.2,435.6c-2.1,0-4.3-0.3-6.4-1c-9.6-3.2-16-10.8-19.1-14.5c-0.2-0.3-0.5-0.5-0.6-0.8   c-0.8-0.5-1.4-1.3-1.9-2.2c-1.4-2.8-0.3-6.3,2.6-7.7c0.9-0.5,4.2-1.7,7.4,1.6c0.4,0.4,0.9,1,1.4,1.6c2.4,2.9,7.4,8.8,13.9,10.9   c3.6,1.2,8.7-0.5,14-2.2c6.8-2.2,14.4-4.7,22.1-2.2c3,1,4.7,4.3,3.7,7.3s-4.3,4.7-7.3,3.7c-4-1.3-9.3,0.4-14.9,2.2   C635.4,433.9,630.3,435.6,625.2,435.6z"></path>
	<path class="st0" d="M622.5,315.3c-7.4,0-13.9-2.4-17.4-3.6c-0.3-0.1-0.7-0.2-0.9-0.3c-0.9-0.1-1.9-0.4-2.7-0.9   c-2.7-1.8-3.4-5.3-1.6-8c0.6-0.9,2.8-3.6,7.2-2.3c0.6,0.2,1.2,0.4,2.1,0.7c3.5,1.3,10.8,3.9,17.5,2.5c3.7-0.8,7.3-4.7,11-8.9   c4.8-5.3,10.2-11.3,18-12.9c3.1-0.6,6.2,1.4,6.8,4.5s-1.4,6.2-4.5,6.8c-4.1,0.9-7.9,5-11.8,9.3c-4.6,5.1-9.8,10.9-17.3,12.5   C626.7,315.1,624.6,315.3,622.5,315.3z"></path>
	<path class="st0" d="M552.1,215.7c-0.1,0-0.2,0-0.4,0c-3.2-0.2-5.6-2.9-5.4-6.1c0.1-1,0.6-4.5,5.1-5.6c0.6-0.1,1.3-0.3,2.1-0.4   c3.7-0.6,11.3-2,16.4-6.5c2.8-2.5,3.9-7.7,5.1-13.2c1.5-7,3.1-14.9,9.1-20.2c2.4-2.1,6-1.9,8.1,0.5s1.9,6-0.5,8.1   c-3.2,2.8-4.3,8.2-5.5,14c-1.4,6.7-3,14.4-8.7,19.4c-7.5,6.7-17.4,8.5-22.1,9.3c-0.3,0.1-0.7,0.1-1,0.2   C553.8,215.5,553,215.7,552.1,215.7z"></path>
	<path class="st0" d="M458.8,159.2c-2.1,0-4.2-1.2-5.2-3.2c-0.5-0.9-1.7-4.2,1.6-7.4c0.4-0.4,1-0.9,1.6-1.4   c2.9-2.4,8.8-7.4,10.9-13.9c1.2-3.6-0.5-8.7-2.2-14c-2.2-6.8-4.7-14.4-2.2-22.1c1-3,4.3-4.7,7.3-3.7s4.7,4.3,3.7,7.3   c-1.3,4,0.4,9.3,2.2,14.9c2.1,6.6,4.6,14,2.2,21.2c-3.2,9.6-10.8,16-14.5,19.1c-0.3,0.2-0.5,0.5-0.8,0.6c-0.5,0.8-1.3,1.4-2.2,1.9   C460.6,159,459.7,159.2,458.8,159.2z"></path>
</g>
</svg>